{
  "page": 1,
  "total_pages": 8509,
  "per_page": 10,
  "total": 85086,
  "results": [
    {
      "birthdate": null,
      "city_district": null,
      "civicrm_id": null,
      "county_district": null,
      "county_file_id": null,
      "created_at": "2015-02-02T22:42:48-05:00",
      "datatrust_id": null,
      "do_not_call": false,
      "do_not_contact": false,
      "dw_id": null,
      "email": "info@mayday.us",
      "email_opt_in": true,
      "employer": "Simon Co",
      "external_id": null,
      "federal_district": null,
      "fire_district": null,
      "first_name": "Mary",
      "has_facebook": false,
      "id": 85195,
      "is_twitter_follower": false,
      "is_volunteer": false,
      "judicial_district": null,
      "labour_region": null,
      "last_name": "Smith",
      "linkedin_id": null,
      "mobile": null,
      "mobile_opt_in": true,
      "nbec_guid": null,
      "ngp_id": null,
      "note": null,
      "occupation": "Manager",
      "party": null,
      "pf_strat_id": null,
      "phone": "831 555-5555",
      "precinct_id": null,
      "primary_address": {
        "address1": "1234 Main St",
        "address2": null,
        "address3": null,
        "city": "Soquel",
        "state": "CA",
        "country_code": null,
        "zip": "95073",
        "lat": null,
        "lng": null
      },
      "profile_image_url_ssl": "https://d3n8a8ro7vhmx.cloudfront.net/assets/icons/buddy.png",
      "recruiter_id": null,
      "rnc_id": null,
      "rnc_regid": null,
      "salesforce_id": null,
      "school_district": null,
      "school_sub_district": null,
      "sex": null,
      "signup_type": 0,
      "state_file_id": null,
      "state_lower_district": null,
      "state_upper_district": null,
      "support_level": null,
      "supranational_district": null,
      "tags": [
        "source: subscribe",
        "source: pledge"
      ],
      "twitter_id": null,
      "twitter_name": null,
      "updated_at": "2015-02-02T22:43:40-05:00",
      "van_id": null,
      "village_district": null,
      "work_phone_number": null,
      "request_ip": "107.178.200.7",
      "skills": null,
      "rootstrikers_subscription": null,
      "uuid": "c8a7a288d2e34f1f4534f365babd272a23fd873e9c38c5b18bd4f3d8092825d",
      "pledge_page_slug": "811b-Mary-Finn",
      "maydayin30_entry_url": null,
      "fundraising_email_subscription": true,
      "voting_district_id": null,
      "map_lookup_district": null
    },
    {
      "birthdate": null,
      "city_district": null,
      "civicrm_id": null,
      "county_district": null,
      "county_file_id": null,
      "created_at": "2015-02-02T22:41:21-05:00",
      "datatrust_id": null,
      "do_not_call": false,
      "do_not_contact": false,
      "dw_id": null,
      "email": null,
      "email_opt_in": true,
      "employer": null,
      "external_id": null,
      "federal_district": null,
      "fire_district": null,
      "first_name": "Bill",
      "has_facebook": true,
      "id": 85194,
      "is_twitter_follower": false,
      "is_volunteer": false,
      "judicial_district": null,
      "labour_region": null,
      "last_name": "Sadley",
      "linkedin_id": null,
      "mobile": null,
      "mobile_opt_in": true,
      "nbec_guid": null,
      "ngp_id": null,
      "note": null,
      "occupation": null,
      "party": null,
      "pf_strat_id": null,
      "phone": null,
      "precinct_id": null,
      "primary_address": null,
      "profile_image_url_ssl": "https://graph.facebook.com/151887944/picture?type=square",
      "recruiter_id": null,
      "rnc_id": null,
      "rnc_regid": null,
      "salesforce_id": null,
      "school_district": null,
      "school_sub_district": null,
      "sex": null,
      "signup_type": 0,
      "state_file_id": null,
      "state_lower_district": null,
      "state_upper_district": null,
      "support_level": null,
      "supranational_district": null,
      "tags": [],
      "twitter_id": null,
      "twitter_name": null,
      "updated_at": "2015-02-02T22:41:21-05:00",
      "van_id": null,
      "village_district": null,
      "work_phone_number": null,
      "request_ip": null,
      "skills": null,
      "rootstrikers_subscription": null,
      "uuid": null,
      "pledge_page_slug": null,
      "maydayin30_entry_url": null,
      "fundraising_email_subscription": null,
      "voting_district_id": null,
      "map_lookup_district": null
    },
    {
      "birthdate": null,
      "city_district": null,
      "civicrm_id": null,
      "county_district": null,
      "county_file_id": null,
      "created_at": "2015-02-02T21:14:54-05:00",
      "datatrust_id": null,
      "do_not_call": false,
      "do_not_contact": false,
      "dw_id": null,
      "email": "info+2@mayday.us",
      "email_opt_in": true,
      "employer": null,
      "external_id": null,
      "federal_district": null,
      "fire_district": null,
      "first_name": "John",
      "has_facebook": false,
      "id": 85193,
      "is_twitter_follower": false,
      "is_volunteer": false,
      "judicial_district": null,
      "labour_region": null,
      "last_name": "Coker",
      "linkedin_id": null,
      "mobile": null,
      "mobile_opt_in": true,
      "nbec_guid": null,
      "ngp_id": null,
      "note": null,
      "occupation": null,
      "party": null,
      "pf_strat_id": null,
      "phone": null,
      "precinct_id": null,
      "primary_address": {
        "address1": null,
        "address2": null,
        "address3": null,
        "city": "Albert",
        "state": "NC",
        "country_code": "US",
        "zip": "28607",
        "lat": "36.2081106",
        "lng": "-81.6254283"
      },
      "profile_image_url_ssl": "https://d3n8a8provhmx.cloudfront.net/assets/icons/buddy.png",
      "recruiter_id": null,
      "rnc_id": null,
      "rnc_regid": null,
      "salesforce_id": null,
      "school_district": null,
      "school_sub_district": null,
      "sex": null,
      "signup_type": 0,
      "state_file_id": null,
      "state_lower_district": null,
      "state_upper_district": null,
      "support_level": null,
      "supranational_district": null,
      "tags": [
        "source: subscribe"
      ],
      "twitter_id": null,
      "twitter_name": null,
      "updated_at": "2015-02-02T21:14:54-05:00",
      "van_id": null,
      "village_district": null,
      "work_phone_number": null,
      "request_ip": "2602:306:8b0b:4aa0:f5d8:b119:2074:5ef4",
      "skills": null,
      "rootstrikers_subscription": true,
      "uuid": null,
      "pledge_page_slug": null,
      "maydayin30_entry_url": null,
      "fundraising_email_subscription": true,
      "voting_district_id": null,
      "map_lookup_district": null
    },
    {
      "birthdate": null,
      "city_district": null,
      "civicrm_id": null,
      "county_district": null,
      "county_file_id": null,
      "created_at": "2015-02-02T18:49:12-05:00",
      "datatrust_id": null,
      "do_not_call": false,
      "do_not_contact": false,
      "dw_id": null,
      "email": null,
      "email_opt_in": true,
      "employer": null,
      "external_id": null,
      "federal_district": null,
      "fire_district": null,
      "first_name": "Ali",
      "has_facebook": true,
      "id": 85192,
      "is_twitter_follower": false,
      "is_volunteer": false,
      "judicial_district": null,
      "labour_region": null,
      "last_name": "Grasso",
      "linkedin_id": null,
      "mobile": null,
      "mobile_opt_in": true,
      "nbec_guid": null,
      "ngp_id": null,
      "note": null,
      "occupation": null,
      "party": null,
      "pf_strat_id": null,
      "phone": null,
      "precinct_id": null,
      "primary_address": null,
      "profile_image_url_ssl": "https://graph.facebook.com/1000212586541/picture?type=square",
      "recruiter_id": null,
      "rnc_id": null,
      "rnc_regid": null,
      "salesforce_id": null,
      "school_district": null,
      "school_sub_district": null,
      "sex": null,
      "signup_type": 0,
      "state_file_id": null,
      "state_lower_district": null,
      "state_upper_district": null,
      "support_level": null,
      "supranational_district": null,
      "tags": [],
      "twitter_id": null,
      "twitter_name": null,
      "updated_at": "2015-02-02T18:49:12-05:00",
      "van_id": null,
      "village_district": null,
      "work_phone_number": null,
      "request_ip": null,
      "skills": null,
      "rootstrikers_subscription": null,
      "uuid": null,
      "pledge_page_slug": null,
      "maydayin30_entry_url": null,
      "fundraising_email_subscription": null,
      "voting_district_id": null,
      "map_lookup_district": null
    },
    {
      "birthdate": null,
      "city_district": null,
      "civicrm_id": null,
      "county_district": null,
      "county_file_id": null,
      "created_at": "2015-02-02T16:42:43-05:00",
      "datatrust_id": null,
      "do_not_call": false,
      "do_not_contact": false,
      "dw_id": null,
      "email": null,
      "email_opt_in": true,
      "employer": null,
      "external_id": null,
      "federal_district": null,
      "fire_district": null,
      "first_name": "William",
      "has_facebook": true,
      "id": 85191,
      "is_twitter_follower": false,
      "is_volunteer": false,
      "judicial_district": null,
      "labour_region": null,
      "last_name": "Copperpot",
      "linkedin_id": null,
      "mobile": null,
      "mobile_opt_in": true,
      "nbec_guid": null,
      "ngp_id": null,
      "note": null,
      "occupation": null,
      "party": null,
      "pf_strat_id": null,
      "phone": null,
      "precinct_id": null,
      "primary_address": null,
      "profile_image_url_ssl": "https://graph.facebook.com/144813129/picture?type=square",
      "recruiter_id": null,
      "rnc_id": null,
      "rnc_regid": null,
      "salesforce_id": null,
      "school_district": null,
      "school_sub_district": null,
      "sex": null,
      "signup_type": 0,
      "state_file_id": null,
      "state_lower_district": null,
      "state_upper_district": null,
      "support_level": null,
      "supranational_district": null,
      "tags": [],
      "twitter_id": null,
      "twitter_name": null,
      "updated_at": "2015-02-02T16:42:43-05:00",
      "van_id": null,
      "village_district": null,
      "work_phone_number": null,
      "request_ip": null,
      "skills": null,
      "rootstrikers_subscription": null,
      "uuid": null,
      "pledge_page_slug": null,
      "maydayin30_entry_url": null,
      "fundraising_email_subscription": null,
      "voting_district_id": null,
      "map_lookup_district": null
    },
    {
      "birthdate": null,
      "city_district": null,
      "civicrm_id": null,
      "county_district": null,
      "county_file_id": null,
      "created_at": "2015-02-02T16:42:42-05:00",
      "datatrust_id": null,
      "do_not_call": false,
      "do_not_contact": false,
      "dw_id": null,
      "email": null,
      "email_opt_in": true,
      "employer": null,
      "external_id": null,
      "federal_district": null,
      "fire_district": null,
      "first_name": "James",
      "has_facebook": true,
      "id": 85190,
      "is_twitter_follower": false,
      "is_volunteer": false,
      "judicial_district": null,
      "labour_region": null,
      "last_name": "Feldman",
      "linkedin_id": null,
      "mobile": null,
      "mobile_opt_in": true,
      "nbec_guid": null,
      "ngp_id": null,
      "note": null,
      "occupation": null,
      "party": null,
      "pf_strat_id": null,
      "phone": null,
      "precinct_id": null,
      "primary_address": null,
      "profile_image_url_ssl": "https://graph.facebook.com/100001431675827/picture?type=square",
      "recruiter_id": null,
      "rnc_id": null,
      "rnc_regid": null,
      "salesforce_id": null,
      "school_district": null,
      "school_sub_district": null,
      "sex": null,
      "signup_type": 0,
      "state_file_id": null,
      "state_lower_district": null,
      "state_upper_district": null,
      "support_level": null,
      "supranational_district": null,
      "tags": [],
      "twitter_id": null,
      "twitter_name": null,
      "updated_at": "2015-02-02T16:42:42-05:00",
      "van_id": null,
      "village_district": null,
      "work_phone_number": null,
      "request_ip": null,
      "skills": null,
      "rootstrikers_subscription": null,
      "uuid": null,
      "pledge_page_slug": null,
      "maydayin30_entry_url": null,
      "fundraising_email_subscription": null,
      "voting_district_id": null,
      "map_lookup_district": null
    },
    {
      "birthdate": null,
      "city_district": null,
      "civicrm_id": null,
      "county_district": null,
      "county_file_id": null,
      "created_at": "2015-02-02T16:42:42-05:00",
      "datatrust_id": null,
      "do_not_call": false,
      "do_not_contact": false,
      "dw_id": null,
      "email": null,
      "email_opt_in": true,
      "employer": null,
      "external_id": null,
      "federal_district": null,
      "fire_district": null,
      "first_name": "Mary",
      "has_facebook": true,
      "id": 85189,
      "is_twitter_follower": false,
      "is_volunteer": false,
      "judicial_district": null,
      "labour_region": null,
      "last_name": "Parker",
      "linkedin_id": null,
      "mobile": null,
      "mobile_opt_in": true,
      "nbec_guid": null,
      "ngp_id": null,
      "note": null,
      "occupation": null,
      "party": null,
      "pf_strat_id": null,
      "phone": null,
      "precinct_id": null,
      "primary_address": null,
      "profile_image_url_ssl": "https://graph.facebook.com/112294492/picture?type=square",
      "recruiter_id": null,
      "rnc_id": null,
      "rnc_regid": null,
      "salesforce_id": null,
      "school_district": null,
      "school_sub_district": null,
      "sex": null,
      "signup_type": 0,
      "state_file_id": null,
      "state_lower_district": null,
      "state_upper_district": null,
      "support_level": null,
      "supranational_district": null,
      "tags": [],
      "twitter_id": null,
      "twitter_name": null,
      "updated_at": "2015-02-02T16:42:42-05:00",
      "van_id": null,
      "village_district": null,
      "work_phone_number": null,
      "request_ip": null,
      "skills": null,
      "rootstrikers_subscription": null,
      "uuid": null,
      "pledge_page_slug": null,
      "maydayin30_entry_url": null,
      "fundraising_email_subscription": null,
      "voting_district_id": null,
      "map_lookup_district": null
    },
    {
      "birthdate": null,
      "city_district": null,
      "civicrm_id": null,
      "county_district": null,
      "county_file_id": null,
      "created_at": "2015-02-02T15:54:02-05:00",
      "datatrust_id": null,
      "do_not_call": false,
      "do_not_contact": true,
      "dw_id": null,
      "email": "info@mayday.us",
      "email_opt_in": false,
      "employer": "",
      "external_id": null,
      "federal_district": null,
      "fire_district": null,
      "first_name": "Api",
      "has_facebook": false,
      "id": 85188,
      "is_twitter_follower": false,
      "is_volunteer": false,
      "judicial_district": null,
      "labour_region": null,
      "last_name": "User",
      "linkedin_id": null,
      "mobile": "",
      "mobile_opt_in": true,
      "nbec_guid": null,
      "ngp_id": null,
      "note": "",
      "occupation": "",
      "party": "",
      "pf_strat_id": null,
      "phone": "",
      "precinct_id": null,
      "primary_address": null,
      "profile_image_url_ssl": "https://d3n8a8po7dhmx.cloudfront.net/assets/icons/buddy.png",
      "recruiter_id": null,
      "rnc_id": null,
      "rnc_regid": null,
      "salesforce_id": null,
      "school_district": null,
      "school_sub_district": null,
      "sex": "",
      "signup_type": 0,
      "state_file_id": null,
      "state_lower_district": null,
      "state_upper_district": null,
      "support_level": null,
      "supranational_district": null,
      "tags": [],
      "twitter_id": null,
      "twitter_name": null,
      "updated_at": "2015-02-02T15:54:02-05:00",
      "van_id": null,
      "village_district": null,
      "work_phone_number": "",
      "request_ip": null,
      "skills": null,
      "rootstrikers_subscription": null,
      "uuid": null,
      "pledge_page_slug": null,
      "maydayin30_entry_url": null,
      "fundraising_email_subscription": null,
      "voting_district_id": null,
      "map_lookup_district": null
    },
    {
      "birthdate": null,
      "city_district": null,
      "civicrm_id": null,
      "county_district": null,
      "county_file_id": null,
      "created_at": "2015-02-02T14:44:24-05:00",
      "datatrust_id": null,
      "do_not_call": false,
      "do_not_contact": false,
      "dw_id": null,
      "email": null,
      "email_opt_in": true,
      "employer": null,
      "external_id": null,
      "federal_district": null,
      "fire_district": null,
      "first_name": "Margaret",
      "has_facebook": true,
      "id": 85187,
      "is_twitter_follower": false,
      "is_volunteer": false,
      "judicial_district": null,
      "labour_region": null,
      "last_name": "Johnson",
      "linkedin_id": null,
      "mobile": null,
      "mobile_opt_in": true,
      "nbec_guid": null,
      "ngp_id": null,
      "note": null,
      "occupation": null,
      "party": null,
      "pf_strat_id": null,
      "phone": null,
      "precinct_id": null,
      "primary_address": null,
      "profile_image_url_ssl": "https://graph.facebook.com/1596309303/picture?type=square",
      "recruiter_id": null,
      "rnc_id": null,
      "rnc_regid": null,
      "salesforce_id": null,
      "school_district": null,
      "school_sub_district": null,
      "sex": null,
      "signup_type": 0,
      "state_file_id": null,
      "state_lower_district": null,
      "state_upper_district": null,
      "support_level": null,
      "supranational_district": null,
      "tags": [],
      "twitter_id": null,
      "twitter_name": null,
      "updated_at": "2015-02-02T14:44:24-05:00",
      "van_id": null,
      "village_district": null,
      "work_phone_number": null,
      "request_ip": null,
      "skills": null,
      "rootstrikers_subscription": null,
      "uuid": null,
      "pledge_page_slug": null,
      "maydayin30_entry_url": null,
      "fundraising_email_subscription": null,
      "voting_district_id": null,
      "map_lookup_district": null
    },
    {
      "birthdate": null,
      "city_district": null,
      "civicrm_id": null,
      "county_district": null,
      "county_file_id": null,
      "created_at": "2015-02-02T09:47:47-05:00",
      "datatrust_id": null,
      "do_not_call": false,
      "do_not_contact": false,
      "dw_id": null,
      "email": "info@gmail.com",
      "email_opt_in": true,
      "employer": "Local 291 Albany",
      "external_id": null,
      "federal_district": "19",
      "fire_district": null,
      "first_name": "Rich",
      "has_facebook": false,
      "id": 85186,
      "is_twitter_follower": false,
      "is_volunteer": false,
      "judicial_district": null,
      "labour_region": null,
      "last_name": "Finn",
      "linkedin_id": null,
      "mobile": null,
      "mobile_opt_in": true,
      "nbec_guid": null,
      "ngp_id": null,
      "note": null,
      "occupation": "Mechanical Miner",
      "party": null,
      "pf_strat_id": null,
      "phone": "(518) 555-5555",
      "precinct_id": null,
      "primary_address": {
        "address1": "123 Main Street",
        "address2": null,
        "address3": null,
        "city": "Freehold",
        "state": "NY",
        "country_code": "US",
        "zip": "12431",
        "lat": "42.38289",
        "lng": "-74.05363"
      },
      "profile_image_url_ssl": "https://d3n8a8rodvhmx.cloudfront.net/assets/icons/buddy.png",
      "recruiter_id": null,
      "rnc_id": null,
      "rnc_regid": null,
      "salesforce_id": null,
      "school_district": null,
      "school_sub_district": null,
      "sex": null,
      "signup_type": 0,
      "state_file_id": null,
      "state_lower_district": "102",
      "state_upper_district": "46",
      "support_level": null,
      "supranational_district": null,
      "tags": [
        "source: pledge"
      ],
      "twitter_id": null,
      "twitter_name": null,
      "updated_at": "2015-02-02T09:47:48-05:00",
      "van_id": null,
      "village_district": null,
      "work_phone_number": null,
      "request_ip": "24.105.255.75",
      "skills": null,
      "rootstrikers_subscription": null,
      "uuid": "dfac3c56abc9a5b5dfb5fa23f024f8f7ddc0618937a04719dc51d174848202f",
      "pledge_page_slug": null,
      "maydayin30_entry_url": null,
      "fundraising_email_subscription": true,
      "voting_district_id": null,
      "map_lookup_district": null
    }
  ],
  "next": "/api/v1/people?page=2",
  "prev": null
}